…
**please note that healthy store count is only available in three
boroughs so make sure you filter before the match**

``` r
health_store_count = 
nyc_healthy_store|>
  group_by(geoid)|>
  summarise(count_healthy_stores=n())

redlining_snap|>
  filter(str_starts(geoid, "36005") | str_starts(geoid, "36047")| str_starts(geoid, "36061"))|>
  left_join(health_store_count,by="geoid")
```

    ## # A tibble: 1,321 × 27
    ##    geoid        cbsa metro_name         hrs2020 interval2020 fip   name  ph_snap
    ##    <chr>       <dbl> <chr>                <dbl>        <dbl> <chr> <chr>   <dbl>
    ##  1 36061008603 35620 New York-Newark-J…       1            1 36061 Cens…     0  
    ##  2 36061010200 35620 New York-Newark-J…       1            1 36061 Cens…     3.1
    ##  3 36061010601 35620 New York-Newark-J…       1            1 36061 Cens…     0  
    ##  4 36061011401 35620 New York-Newark-J…       1            1 36061 Cens…     1.2
    ##  5 36061011402 35620 New York-Newark-J…       1            1 36061 Cens…     0.8
    ##  6 36061012000 35620 New York-Newark-J…       1            1 36061 Cens…     0.8
    ##  7 36061012200 35620 New York-Newark-J…       1            1 36061 Cens…     0  
    ##  8 36061012800 35620 New York-Newark-J…       1            1 36061 Cens…     0  
    ##  9 36061013000 35620 New York-Newark-J…       1            1 36061 Cens…     1.1
    ## 10 36061014200 35620 New York-Newark-J…       1            1 36061 Cens…     0  
    ## # ℹ 1,311 more rows
    ## # ℹ 19 more variables: total_ct_households <dbl>, ph_with_children <dbl>,
    ## #   ph_no_children <dbl>, ph_below_poverty <dbl>, ph_above_poverty <dbl>,
    ## #   ph_disability <dbl>, ph_no_disability <dbl>, ph_white <dbl>,
    ## #   ph_black <dbl>, ph_aian <dbl>, ph_asian <dbl>, ph_nhopi <dbl>,
    ## #   ph_some_other_race <dbl>, ph_two_race <dbl>, ph_hispanic <dbl>,
    ## #   ph_no_work <dbl>, ph_1_work <dbl>, ph_2_work <dbl>, …
…
