Data Cleaning
================

## Historic Redlining Score Data

## Recognized Healthy Store in NYC

    # A tibble: 1,321 × 27
       geoid       metro_name     hrs2020 interval2020 fip   red_grade name  ph_snap
       <chr>       <chr>            <dbl> <chr>        <chr> <chr>     <chr>   <dbl>
     1 36061008603 New York-Newa…       1 1            36061 A         Cens…     0  
     2 36061010200 New York-Newa…       1 1            36061 A         Cens…     3.1
     3 36061010601 New York-Newa…       1 1            36061 A         Cens…     0  
     4 36061011401 New York-Newa…       1 1            36061 A         Cens…     1.2
     5 36061011402 New York-Newa…       1 1            36061 A         Cens…     0.8
     6 36061012000 New York-Newa…       1 1            36061 A         Cens…     0.8
     7 36061012200 New York-Newa…       1 1            36061 A         Cens…     0  
     8 36061012800 New York-Newa…       1 1            36061 A         Cens…     0  
     9 36061013000 New York-Newa…       1 1            36061 A         Cens…     1.1
    10 36061014200 New York-Newa…       1 1            36061 A         Cens…     0  
    # ℹ 1,311 more rows
    # ℹ 19 more variables: total_ct_households <dbl>, ph_elderly <dbl>,
    #   ph_with_children <dbl>, ph_no_children <dbl>, ph_below_poverty <dbl>,
    #   ph_above_poverty <dbl>, ph_disability <dbl>, ph_no_disability <dbl>,
    #   ph_white <dbl>, ph_black <dbl>, s2201_c02_027e <dbl>, ph_asian <dbl>,
    #   ph_hispanic <dbl>, ph_no_work <dbl>, ph_1_work <dbl>, ph_2_work <dbl>,
    #   ph_other_race <dbl>, ph_non_hispanic <dbl>, count_healthy_stores <int>
…
